module todoapp-server

go 1.17

require (
	github.com/go-sql-driver/mysql v1.6.0
	github.com/golang/mock v1.6.0
	github.com/joho/godotenv v1.3.0
	github.com/labstack/echo/v4 v4.5.0
	github.com/stretchr/testify v1.4.0
)

require (
	github.com/davecgh/go-spew v1.1.0 // indirect
	github.com/golang-jwt/jwt v3.2.2+incompatible // indirect
	github.com/labstack/gommon v0.3.0 // indirect
	github.com/mattn/go-colorable v0.1.8 // indirect
	github.com/mattn/go-isatty v0.0.14 // indirect
	github.com/pmezard/go-difflib v1.0.0 // indirect
	github.com/valyala/bytebufferpool v1.0.0 // indirect
	github.com/valyala/fasttemplate v1.2.1 // indirect
	golang.org/x/crypto v0.0.0-20210322153248-0c34fe9e7dc2 // indirect
	golang.org/x/net v0.0.0-20210405180319-a5a99cb37ef4 // indirect
	golang.org/x/sys v0.0.0-20210630005230-0f9fa26af87c // indirect
	golang.org/x/text v0.3.6 // indirect
	golang.org/x/time v0.0.0-20210723032227-1f47c861a9ac // indirect
	gopkg.in/yaml.v2 v2.2.2 // indirect
)
